﻿

////////////////////////////////////////////////////////////////////////////////////////////////////
ScriptableObjectについて
////////////////////////////////////////////////////////////////////////////////////////////////////

用途
・リソースを紐付けして、リソースファイルへの配置をなくす